{
    "keys": [
        {
            "alg": "ES256",
            "kty": "EC",
            "crv": "P-256",
            "use": "sig",
            "kid": "qFdl0tDZK9JAWP6g9_cAv57c3KWxMKwvxCrRVSzcxvM",
            "x": "XSxuwW_VI_s6lAw6LAlL8N7REGzQd_zXeIVDHP_j_Do",
            "y": "88-aI4WAEl4YmUpew40a9vq_w5OcFvsuaKMxJRLRLL0"
        }
    ]
}
